22

95 22
11
65 17
32 4
67 3
15 6
11 8
93 19
58 9
40 21
38 19
82 10
91 9
334 10

65 45
33
29 4
26 25
52 5
62 12
13 35
17 1
54 27
16 29
39 42
46 18
51 39
8 38
9 16
43 18
51 39
4 39
22 7
14 16
48 30
47 15
19 9
11 21
2 14
52 25
19 0
1 38
59 16
57 37
12 1
31 18
56 33
7 26
19 0
591 177

77 68
37
33 61
26 21
51 14
17 45
24 45
17 58
34 20
63 63
3 63
9 55
47 27
68 20
4 43
35 59
16 61
60 41
31 58
45 64
33 23
22 9
53 65
28 45
65 61
17 29
5 59
63 10
42 29
60 2
63 6
16 59
53 49
58 29
16 64
16 48
57 65
7 35
25 26
721 154

30 68
41
12 50
28 47
23 54
12 0
18 30
18 39
9 65
6 3
9 45
3 55
29 47
7 61
7 56
8 7
19 9
13 12
3 50
6 25
21 30
19 64
6 62
18 60
3 60
23 3
3 54
7 0
15 67
0 12
19 56
14 43
19 26
1 15
0 4
3 50
25 13
28 3
25 19
28 7
14 26
14 61
3 61
381 178

15 69
7
12 28
8 47
1 7
6 26
6 32
7 11
2 20
273 51

37 32
15
19 1
4 16
22 0
34 13
27 14
32 22
18 7
18 19
26 0
10 30
27 25
12 24
9 22
3 25
2 9
67 62

34 79
8
27 71
2 55
7 64
17 33
26 27
11 43
14 0
4 71
407 179

39 28
13
35 27
23 7
3 23
35 9
18 8
2 4
20 9
26 17
5 0
20 13
3 14
17 14
15 16
319 96

51 2
21
3 1
0 0
44 0
11 1
5 1
36 0
28 1
27 1
31 0
1 1
30 0
28 0
38 1
25 1
49 1
41 0
7 1
31 1
27 0
38 1
11 1
749 125

26 90
36
15 50
11 38
14 12
0 33
12 58
22 75
2 71
4 56
0 35
5 15
4 71
13 22
1 47
6 8
17 53
25 77
20 5
13 11
16 41
18 53
8 74
25 45
11 71
19 82
7 36
4 78
0 87
8 74
18 84
12 40
16 39
21 8
3 35
2 33
17 85
21 51
836 195

38 78
20
17 39
30 11
37 11
14 32
3 56
29 61
23 6
24 54
19 75
28 70
34 25
27 56
27 36
25 3
16 31
13 60
0 23
28 62
5 16
25 18
274 125

93 10
24
51 8
69 8
14 2
46 9
61 1
43 3
23 0
5 4
87 3
55 0
66 8
48 2
38 4
18 4
83 0
35 6
7 8
75 0
13 0
90 3
13 6
66 5
19 8
5 3
511 198

83 58
7
35 27
71 6
67 3
21 10
8 37
51 55
13 8
166 158

42 19
22
30 9
28 16
31 17
41 10
38 10
26 11
35 2
17 5
41 2
39 15
22 8
1 11
27 9
39 12
27 7
16 2
30 4
21 14
6 1
19 8
3 4
18 0
775 60

87 90
7
32 58
84 39
27 81
27 60
8 40
41 6
47 45
24 188

60 56
27
0 51
29 26
28 25
7 45
2 15
21 17
43 13
26 15
11 46
42 7
13 19
29 37
7 47
32 46
9 45
34 48
5 17
3 22
39 55
8 24
6 40
10 21
34 46
26 10
4 41
40 26
52 40
446 60

33 65
39
19 0
14 32
2 12
11 19
31 22
31 37
30 64
31 64
28 2
2 12
23 12
28 24
8 34
20 24
21 44
17 17
9 40
30 55
16 64
26 60
21 5
23 0
0 39
28 5
2 21
1 42
24 24
22 63
9 38
19 48
0 28
2 39
12 4
6 62
28 57
19 43
8 12
12 53
3 42
586 80

19 75
46
8 11
0 35
12 22
11 72
10 5
5 15
10 41
16 37
9 48
6 5
9 16
17 5
6 67
17 45
14 65
7 25
18 59
5 36
17 3
17 47
4 58
0 58
8 58
7 16
17 57
17 54
3 34
2 39
3 36
18 5
5 43
15 64
13 31
12 72
10 46
13 15
15 70
18 64
5 34
10 26
4 55
9 2
0 33
18 67
18 15
4 3
857 147

96 28
15
71 8
26 27
76 16
72 1
9 11
92 21
41 16
92 11
75 17
20 10
7 21
74 19
65 17
0 1
1 18
371 83

10 91
10
1 6
0 35
8 58
9 46
3 53
3 79
8 11
5 22
1 33
5 39
446 62

26 95
31
19 60
5 61
13 94
13 70
23 14
17 36
8 0
4 66
13 72
11 67
7 13
7 86
5 52
2 39
9 21
10 70
5 80
12 49
3 19
13 77
8 65
17 44
3 43
9 29
16 5
0 77
23 88
6 68
18 88
21 87
8 21
774 157

17 10
16
16 6
3 1
1 2
11 7
6 4
5 4
5 6
9 2
8 6
9 3
8 4
7 6
14 3
11 6
7 9
6 8
246 61
