20

74 75
32
73 40
16 20
27 27
14 68
63 52
24 61
55 31
30 32
49 56
7 51
0 34
55 17
56 61
67 67
30 31
66 57
36 60
43 55
49 43
65 70
19 8
0 54
60 44
69 38
66 21
18 62
33 48
33 48
61 10
43 61
4 2
19 25
186 34

61 80
6
59 6
2 31
40 34
23 41
28 15
27 69
70 37

61 10
38
33 3
52 5
0 8
49 0
20 9
6 8
6 6
42 9
40 5
27 0
10 5
14 2
25 8
59 6
3 7
2 0
4 9
47 2
45 6
5 5
35 2
0 9
42 1
17 9
2 2
58 1
7 1
23 5
39 1
50 5
44 3
23 2
50 0
23 9
19 0
25 0
11 8
7 3
45 38

97 67
49
59 52
21 63
42 31
2 38
77 47
88 59
81 64
50 25
64 31
78 35
55 5
91 47
89 37
64 38
58 48
46 43
50 38
95 43
27 54
58 28
7 41
67 11
28 29
71 19
78 22
20 6
94 21
46 7
8 4
18 40
55 51
82 54
35 51
44 35
85 26
13 40
85 7
53 54
14 4
82 39
39 26
15 35
53 32
93 63
16 3
72 34
36 22
18 9
44 24
151 44

97 56
30
76 3
6 44
27 38
21 33
18 18
64 29
57 21
11 15
18 43
88 51
70 40
5 2
30 33
83 43
37 50
47 26
39 2
79 36
35 2
12 2
94 53
17 38
59 2
30 17
88 25
3 1
20 2
46 6
54 26
69 4
122 41

92 99
1
20 53
235 26

29 84
6
10 24
0 43
12 75
9 26
9 63
4 80
3 39

32 100
10
6 87
8 97
8 52
2 40
3 19
26 82
1 5
26 68
0 28
14 43
181 25

58 49
29
4 41
41 13
27 34
39 2
28 46
45 33
15 18
12 10
21 21
13 3
42 10
50 25
2 9
7 31
48 40
12 19
33 36
34 20
47 26
5 28
26 1
7 10
36 35
55 10
5 41
51 27
24 22
1 26
25 1
142 36

2 73
41
0 41
0 62
0 55
0 42
0 66
1 1
0 71
1 26
0 43
0 12
0 59
1 58
0 52
0 5
1 3
0 32
0 35
1 60
0 20
1 29
0 46
0 45
1 42
0 3
0 48
1 45
0 4
0 52
1 35
0 52
1 32
1 8
1 33
1 53
0 2
0 18
0 14
0 16
1 28
0 44
0 30
56 41

21 73
47
6 39
0 57
6 58
13 26
17 7
20 13
2 16
13 48
20 65
3 31
3 33
9 28
2 54
0 8
19 3
15 59
2 66
2 40
0 5
14 66
7 45
12 9
1 38
13 64
17 45
6 26
0 51
0 19
8 61
19 45
6 22
17 33
3 53
6 25
3 45
11 47
17 66
9 20
2 16
16 57
16 22
11 22
2 70
2 7
13 71
13 13
1 29
234 46

74 5
42
52 3
43 0
68 0
8 0
8 3
20 2
50 0
31 3
73 4
38 2
33 2
33 4
23 2
72 3
69 0
48 3
60 0
57 3
70 0
21 4
1 0
45 3
52 0
71 4
24 0
49 2
23 0
18 0
38 3
41 1
51 2
14 1
34 2
3 3
22 0
72 4
0 1
34 3
64 0
30 1
8 1
60 4
49 42

99 66
35
36 63
29 62
59 11
26 56
66 33
67 52
14 4
2 23
85 49
54 49
56 24
19 37
73 19
26 49
74 39
57 37
49 44
17 51
77 3
20 40
16 28
10 48
98 10
96 46
52 38
47 56
94 22
10 27
61 9
2 40
82 46
22 18
46 57
91 40
84 58
176 42

67 92
3
39 89
25 73
5 48
127 25

65 8
44
3 1
59 5
1 6
27 0
11 5
38 2
49 5
61 5
34 2
34 7
15 5
3 4
48 1
44 1
9 1
17 2
12 2
37 2
7 7
25 7
43 5
25 0
62 6
11 7
59 1
28 4
12 4
33 4
5 7
58 7
27 3
8 3
63 3
8 6
63 6
39 0
30 0
14 6
19 7
44 7
62 7
48 1
34 2
16 6
67 30

24 25
2
14 17
11 3
26 42

25 18
10
18 9
4 16
14 14
23 12
13 13
0 16
8 15
10 17
8 16
0 6
73 43

31 95
26
24 62
19 41
24 3
25 9
24 14
4 37
8 73
21 15
18 39
0 74
13 86
4 1
18 64
21 93
1 30
27 6
29 27
10 42
14 40
21 89
9 64
14 58
25 38
6 54
25 23
26 7
211 48

21 97
41
2 89
5 38
13 75
0 70
5 8
17 60
3 1
5 55
13 65
17 9
12 31
16 0
13 93
1 94
4 34
7 33
6 71
6 50
2 37
0 85
15 66
20 80
1 8
11 38
14 4
14 57
7 64
15 48
4 24
19 0
4 58
3 88
12 0
13 93
6 62
8 83
10 93
15 47
9 95
5 95
0 1
168 46

18 30
21
9 3
13 18
9 28
7 20
5 25
8 29
16 3
3 27
1 17
4 22
12 3
2 5
17 23
3 9
8 8
2 8
3 28
13 20
2 14
17 17
6 14
94 40
